1579185028494	mozrunner::runner	INFO	Running command: "C:\\Program Files\\Mozilla Firefox\\firefox.exe" "-marionette" "-foreground" "-no-remote" "-profile" "C:\\Users\\Ivan\\AppData\\Local\\Temp\\rust_mozprofileJ8il9u"
1579185029060	addons.webextension.doh-rollout@mozilla.org	WARN	Loading extension 'doh-rollout@mozilla.org': Reading manifest: Invalid extension permission: networkStatus
1579185029220	addons.webextension.screenshots@mozilla.org	WARN	Loading extension 'screenshots@mozilla.org': Reading manifest: Invalid extension permission: mozillaAddons
1579185029221	addons.webextension.screenshots@mozilla.org	WARN	Loading extension 'screenshots@mozilla.org': Reading manifest: Invalid extension permission: telemetry
1579185029221	addons.webextension.screenshots@mozilla.org	WARN	Loading extension 'screenshots@mozilla.org': Reading manifest: Invalid extension permission: resource://pdf.js/
1579185029221	addons.webextension.screenshots@mozilla.org	WARN	Loading extension 'screenshots@mozilla.org': Reading manifest: Invalid extension permission: about:reader*
JavaScript error: resource://gre/modules/XULStore.jsm, line 66: Error: Can't find profile directory.
1579185032151	Marionette	INFO	Listening on port 51076
1579185032661	Marionette	WARN	TLS certificate errors will be ignored for this session
JavaScript warning: https://steamstore-a.akamaihd.net/public/javascript/dynamicstore.js?v=DjaAmQ6acPBa&l=russian, line 2349: unreachable code after return statement
JavaScript warning: https://steamstore-a.akamaihd.net/public/javascript/dynamicstore.js?v=DjaAmQ6acPBa&l=russian, line 2349: unreachable code after return statement
1579185087310	Marionette	INFO	Stopped listening on port 51076

###!!! [Child][RunMessage] Error: Channel closing: too late to send/recv, messages will be lost


###!!! [Child][MessageChannel::SendAndWait] Error: Channel error: cannot send/recv

1579185232197	mozrunner::runner	INFO	Running command: "C:\\Program Files\\Mozilla Firefox\\firefox.exe" "-marionette" "-foreground" "-no-remote" "-profile" "C:\\Users\\Ivan\\AppData\\Local\\Temp\\rust_mozprofileyZaaAC"
1579185232752	addons.webextension.doh-rollout@mozilla.org	WARN	Loading extension 'doh-rollout@mozilla.org': Reading manifest: Invalid extension permission: networkStatus
1579185232895	addons.webextension.screenshots@mozilla.org	WARN	Loading extension 'screenshots@mozilla.org': Reading manifest: Invalid extension permission: mozillaAddons
1579185232895	addons.webextension.screenshots@mozilla.org	WARN	Loading extension 'screenshots@mozilla.org': Reading manifest: Invalid extension permission: telemetry
1579185232895	addons.webextension.screenshots@mozilla.org	WARN	Loading extension 'screenshots@mozilla.org': Reading manifest: Invalid extension permission: resource://pdf.js/
1579185232896	addons.webextension.screenshots@mozilla.org	WARN	Loading extension 'screenshots@mozilla.org': Reading manifest: Invalid extension permission: about:reader*
JavaScript error: resource://gre/modules/XULStore.jsm, line 66: Error: Can't find profile directory.
1579185235630	Marionette	INFO	Listening on port 51355
1579185235848	Marionette	WARN	TLS certificate errors will be ignored for this session
JavaScript warning: https://steamstore-a.akamaihd.net/public/javascript/dynamicstore.js?v=DjaAmQ6acPBa&l=russian, line 2349: unreachable code after return statement
JavaScript warning: https://steamstore-a.akamaihd.net/public/javascript/dynamicstore.js?v=DjaAmQ6acPBa&l=russian, line 2349: unreachable code after return statement
1579185286411	Marionette	INFO	Stopped listening on port 51355

###!!! [Child][RunMessage] Error: Channel closing: too late to send/recv, messages will be lost

